<?xml version="1.0" encoding="UTF-8"?>
<svg xmlns="http://www.w3.org/2000/svg" xmlns:xlink="http://www.w3.org/1999/xlink" width="301.674pt" height="48.742pt" viewBox="0 0 301.674 48.742" version="1.1">
<defs>
<g>
<symbol overflow="visible" id="glyph0-0">
<path style="stroke:none;" d=""/>
</symbol>
<symbol overflow="visible" id="glyph0-1">
<path style="stroke:none;" d="M 6.84375 -3.265625 C 7 -3.265625 7.1875 -3.265625 7.1875 -3.453125 C 7.1875 -3.65625 7 -3.65625 6.859375 -3.65625 L 0.890625 -3.65625 C 0.75 -3.65625 0.5625 -3.65625 0.5625 -3.453125 C 0.5625 -3.265625 0.75 -3.265625 0.890625 -3.265625 Z M 6.859375 -1.328125 C 7 -1.328125 7.1875 -1.328125 7.1875 -1.53125 C 7.1875 -1.71875 7 -1.71875 6.84375 -1.71875 L 0.890625 -1.71875 C 0.75 -1.71875 0.5625 -1.71875 0.5625 -1.53125 C 0.5625 -1.328125 0.75 -1.328125 0.890625 -1.328125 Z M 6.859375 -1.328125 "/>
</symbol>
<symbol overflow="visible" id="glyph0-2">
<path style="stroke:none;" d="M 4.078125 -2.296875 L 6.859375 -2.296875 C 7 -2.296875 7.1875 -2.296875 7.1875 -2.5 C 7.1875 -2.6875 7 -2.6875 6.859375 -2.6875 L 4.078125 -2.6875 L 4.078125 -5.484375 C 4.078125 -5.625 4.078125 -5.8125 3.875 -5.8125 C 3.671875 -5.8125 3.671875 -5.625 3.671875 -5.484375 L 3.671875 -2.6875 L 0.890625 -2.6875 C 0.75 -2.6875 0.5625 -2.6875 0.5625 -2.5 C 0.5625 -2.296875 0.75 -2.296875 0.890625 -2.296875 L 3.671875 -2.296875 L 3.671875 0.5 C 3.671875 0.640625 3.671875 0.828125 3.875 0.828125 C 4.078125 0.828125 4.078125 0.640625 4.078125 0.5 Z M 4.078125 -2.296875 "/>
</symbol>
<symbol overflow="visible" id="glyph1-0">
<path style="stroke:none;" d=""/>
</symbol>
<symbol overflow="visible" id="glyph1-1">
<path style="stroke:none;" d="M 1.90625 -0.53125 C 1.90625 -0.8125 1.671875 -1.0625 1.390625 -1.0625 C 1.09375 -1.0625 0.859375 -0.8125 0.859375 -0.53125 C 0.859375 -0.234375 1.09375 0 1.390625 0 C 1.671875 0 1.90625 -0.234375 1.90625 -0.53125 Z M 1.90625 -0.53125 "/>
</symbol>
</g>
<clipPath id="clip1">
  <path d="M 9 0 L 24 0 L 24 48.742188 L 9 48.742188 Z M 9 0 "/>
</clipPath>
<clipPath id="clip2">
  <path d="M 9 38 L 24 38 L 24 48.742188 L 9 48.742188 Z M 9 38 "/>
</clipPath>
<clipPath id="clip3">
  <path d="M 38 22 L 53 22 L 53 48.742188 L 38 48.742188 Z M 38 22 "/>
</clipPath>
<clipPath id="clip4">
  <path d="M 38 38 L 53 38 L 53 48.742188 L 38 48.742188 Z M 38 38 "/>
</clipPath>
<clipPath id="clip5">
  <path d="M 80 22 L 95 22 L 95 48.742188 L 80 48.742188 Z M 80 22 "/>
</clipPath>
<clipPath id="clip6">
  <path d="M 80 38 L 95 38 L 95 48.742188 L 80 48.742188 Z M 80 38 "/>
</clipPath>
<clipPath id="clip7">
  <path d="M 128 22 L 143 22 L 143 48.742188 L 128 48.742188 Z M 128 22 "/>
</clipPath>
<clipPath id="clip8">
  <path d="M 128 38 L 143 38 L 143 48.742188 L 128 48.742188 Z M 128 38 "/>
</clipPath>
<clipPath id="clip9">
  <path d="M 158 25 L 184 25 L 184 48.742188 L 158 48.742188 Z M 158 25 "/>
</clipPath>
<clipPath id="clip10">
  <path d="M 172 25 L 199 25 L 199 48.742188 L 172 48.742188 Z M 172 25 "/>
</clipPath>
<clipPath id="clip11">
  <path d="M 157 38 L 172 38 L 172 48.742188 L 157 48.742188 Z M 157 38 "/>
</clipPath>
<clipPath id="clip12">
  <path d="M 185 38 L 200 38 L 200 48.742188 L 185 48.742188 Z M 185 38 "/>
</clipPath>
<clipPath id="clip13">
  <path d="M 198 20 L 224 20 L 224 48.742188 L 198 48.742188 Z M 198 20 "/>
</clipPath>
<clipPath id="clip14">
  <path d="M 212 20 L 238 20 L 238 48.742188 L 212 48.742188 Z M 212 20 "/>
</clipPath>
<clipPath id="clip15">
  <path d="M 196 38 L 211 38 L 211 48.742188 L 196 48.742188 Z M 196 38 "/>
</clipPath>
<clipPath id="clip16">
  <path d="M 225 38 L 240 38 L 240 48.742188 L 225 48.742188 Z M 225 38 "/>
</clipPath>
<clipPath id="clip17">
  <path d="M 236 18 L 251 18 L 251 48.742188 L 236 48.742188 Z M 236 18 "/>
</clipPath>
<clipPath id="clip18">
  <path d="M 264 18 L 279 18 L 279 48.742188 L 264 48.742188 Z M 264 18 "/>
</clipPath>
<clipPath id="clip19">
  <path d="M 236 38 L 251 38 L 251 48.742188 L 236 48.742188 Z M 236 38 "/>
</clipPath>
<clipPath id="clip20">
  <path d="M 264 38 L 279 38 L 279 48.742188 L 264 48.742188 Z M 264 38 "/>
</clipPath>
</defs>
<g id="surface1">
<g style="fill:rgb(0%,0%,0%);fill-opacity:1;">
  <use xlink:href="#glyph0-1" x="1.494" y="26.199"/>
</g>
<g clip-path="url(#clip1)" clip-rule="nonzero">
<path style="fill:none;stroke-width:0.3985;stroke-linecap:butt;stroke-linejoin:miter;stroke:rgb(0%,0%,59.999084%);stroke-opacity:1;stroke-miterlimit:10;" d="M 0.00003125 0.001625 C 0.00003125 -0.709312 1.418 -1.064781 1.418 -1.771812 C 1.418 -2.283531 0.726594 -2.728844 0.00003125 -3.189781 C -0.726531 -3.650719 -1.417938 -4.092125 -1.417938 -4.60775 C -1.417938 -5.119469 -0.726531 -5.560875 0.00003125 -6.021812 C 0.726594 -6.486656 1.418 -6.928062 1.418 -7.439781 C 1.418 -7.955406 0.726594 -8.396812 0.00003125 -8.85775 C -0.726531 -9.318687 -1.417938 -9.764 -1.417938 -10.275719 C -1.417938 -10.787437 -0.726531 -11.23275 0.00003125 -11.693687 C 0.726594 -12.154625 1.418 -12.596031 1.418 -13.111656 C 1.418 -13.623375 0.726594 -14.064781 0.00003125 -14.525719 C -0.726531 -14.990562 -1.417938 -15.431969 -1.417938 -15.943687 C -1.417938 -16.459312 -0.726531 -16.900719 0.00003125 -17.361656 C 0.726594 -17.822594 1.418 -18.267906 1.418 -18.779625 C 1.418 -19.291344 0.726594 -19.736656 0.00003125 -20.197594 C -0.726531 -20.658531 -1.417938 -21.099937 -1.417938 -21.615562 C -1.417938 -22.127281 -0.726531 -22.568687 0.00003125 -23.029625 C 0.726594 -23.494469 1.418 -23.935875 1.418 -24.447594 C 1.418 -24.963219 0.726594 -25.404625 0.00003125 -25.865562 C -0.726531 -26.3265 -1.417938 -26.771812 -1.417938 -27.283531 C -1.417938 -27.79525 -0.726531 -28.240562 0.00003125 -28.7015 C 0.726594 -29.162437 1.418 -29.603844 1.418 -30.119469 C 1.418 -30.631187 0.726594 -31.072594 0.00003125 -31.537437 C -0.726531 -31.998375 -1.417938 -32.439781 -1.417938 -32.9515 C -1.417938 -33.467125 -0.726531 -33.908531 0.00003125 -34.369469 C 0.726594 -34.830406 1.418 -35.275719 1.418 -35.787437 C 1.418 -36.299156 0.726594 -36.744469 0.00003125 -37.205406 C -0.726531 -37.666344 -1.417938 -38.10775 -1.417938 -38.623375 C -1.417938 -39.330406 0.00003125 -39.685875 0.00003125 -40.392906 L 0.00003125 -42.521812 " transform="matrix(1,0,0,-1,16.707,3.111)"/>
</g>
<path style="fill-rule:nonzero;fill:rgb(0%,0%,0%);fill-opacity:1;stroke-width:0.3985;stroke-linecap:butt;stroke-linejoin:miter;stroke:rgb(0%,0%,0%);stroke-opacity:1;stroke-miterlimit:10;" d="M 1.418 0.001625 C 1.418 0.782875 0.781281 1.415688 0.00003125 1.415688 C -0.781219 1.415688 -1.417938 0.782875 -1.417938 0.001625 C -1.417938 -0.783531 -0.781219 -1.416344 0.00003125 -1.416344 C 0.781281 -1.416344 1.418 -0.783531 1.418 0.001625 Z M 1.418 0.001625 " transform="matrix(1,0,0,-1,16.707,3.111)"/>
<path style=" stroke:none;fill-rule:nonzero;fill:rgb(0%,0%,0%);fill-opacity:1;" d="M 18.125 45.632812 C 18.125 44.847656 17.488281 44.214844 16.707031 44.214844 C 15.925781 44.214844 15.289062 44.847656 15.289062 45.632812 C 15.289062 46.414062 15.925781 47.046875 16.707031 47.046875 C 17.488281 47.046875 18.125 46.414062 18.125 45.632812 Z M 18.125 45.632812 "/>
<g clip-path="url(#clip2)" clip-rule="nonzero">
<path style="fill:none;stroke-width:0.3985;stroke-linecap:butt;stroke-linejoin:miter;stroke:rgb(0%,0%,0%);stroke-opacity:1;stroke-miterlimit:10;" d="M 1.418 -42.521812 C 1.418 -41.736656 0.781281 -41.103844 0.00003125 -41.103844 C -0.781219 -41.103844 -1.417938 -41.736656 -1.417938 -42.521812 C -1.417938 -43.303062 -0.781219 -43.935875 0.00003125 -43.935875 C 0.781281 -43.935875 1.418 -43.303062 1.418 -42.521812 Z M 1.418 -42.521812 " transform="matrix(1,0,0,-1,16.707,3.111)"/>
</g>
<g style="fill:rgb(0%,0%,0%);fill-opacity:1;">
  <use xlink:href="#glyph0-2" x="27.006" y="26.862"/>
</g>
<path style="fill:none;stroke-width:0.3985;stroke-linecap:butt;stroke-linejoin:miter;stroke:rgb(0%,0%,59.999084%);stroke-opacity:1;stroke-miterlimit:10;" d="M -14.175094 0.001625 C -13.827438 -0.619469 -12.417281 -0.240562 -12.073531 -0.861656 C -11.823531 -1.306969 -12.214156 -2.029625 -12.624313 -2.787437 C -13.034469 -3.54525 -13.425094 -4.267906 -13.175094 -4.713219 C -12.925094 -5.162437 -12.108688 -5.213219 -11.249313 -5.264 C -10.389938 -5.318687 -9.569625 -5.369469 -9.319625 -5.814781 C -9.073531 -6.264 -9.46025 -6.986656 -9.870406 -7.744469 C -10.280563 -8.498375 -10.671188 -9.221031 -10.421188 -9.67025 C -10.171188 -10.119469 -9.354781 -10.17025 -8.495406 -10.221031 C -7.636031 -10.271812 -6.815719 -10.322594 -6.565719 -10.771812 C -6.319625 -11.221031 -6.71025 -11.943687 -7.1165 -12.697594 C -7.526656 -13.455406 -7.917281 -14.178062 -7.667281 -14.627281 C -7.421188 -15.0765 -6.600875 -15.127281 -5.7415 -15.178062 C -4.882125 -15.228844 -4.061813 -15.279625 -3.815719 -15.728844 C -3.565719 -16.178062 -3.956344 -16.896812 -4.3665 -17.654625 C -4.776656 -18.412437 -5.163375 -19.135094 -4.917281 -19.580406 C -4.667281 -20.029625 -3.846969 -20.080406 -2.987594 -20.131187 C -2.128219 -20.185875 -1.311813 -20.236656 -1.061813 -20.681969 C -0.811813 -21.131187 -1.202438 -21.853844 -1.612594 -22.611656 C -2.02275 -23.365562 -2.413375 -24.088219 -2.163375 -24.537437 C -1.819625 -25.158531 -0.405563 -24.779625 -0.0618125 -25.396812 L 0.0006875 -25.510094 " transform="matrix(1,0,0,-1,45.054,3.111)"/>
<path style="fill:none;stroke-width:0.3985;stroke-linecap:butt;stroke-linejoin:miter;stroke:rgb(0%,0%,59.999084%);stroke-opacity:1;stroke-miterlimit:10;" d="M 14.172562 0.001625 C 13.828812 -0.619469 14.895219 -1.615562 14.551469 -2.236656 C 14.301469 -2.685875 13.485062 -2.736656 12.625687 -2.787437 C 11.766312 -2.838219 10.946 -2.889 10.696 -3.338219 C 10.449906 -3.787437 10.836625 -4.510094 11.246781 -5.264 C 11.656937 -6.021812 12.047562 -6.744469 11.797562 -7.193687 C 11.551469 -7.642906 10.731156 -7.693687 9.871781 -7.744469 C 9.012406 -7.79525 8.192094 -7.846031 7.946 -8.29525 C 7.696 -8.744469 8.086625 -9.463219 8.496781 -10.221031 C 8.903031 -10.978844 9.293656 -11.7015 9.043656 -12.146812 C 8.797562 -12.596031 7.97725 -12.646812 7.117875 -12.697594 C 6.2585 -12.752281 5.442094 -12.803062 5.192094 -13.248375 C 4.942094 -13.697594 5.332719 -14.42025 5.742875 -15.178062 C 6.153031 -15.931969 6.53975 -16.654625 6.293656 -17.103844 C 6.043656 -17.553062 5.223344 -17.603844 4.363969 -17.654625 C 3.504594 -17.705406 2.688187 -17.756187 2.438187 -18.205406 C 2.188187 -18.654625 2.578812 -19.377281 2.988969 -20.131187 C 3.399125 -20.889 3.78975 -21.611656 3.53975 -22.060875 C 3.28975 -22.510094 2.469437 -22.560875 1.610062 -22.611656 C 0.754594 -22.662437 -0.0657188 -22.713219 -0.315719 -23.162437 C -0.659469 -23.779625 0.406937 -24.779625 0.0631875 -25.396812 L 0.0006875 -25.510094 " transform="matrix(1,0,0,-1,45.054,3.111)"/>
<g clip-path="url(#clip3)" clip-rule="nonzero">
<path style="fill:none;stroke-width:0.3985;stroke-linecap:butt;stroke-linejoin:miter;stroke:rgb(0%,0%,59.999084%);stroke-opacity:1;stroke-miterlimit:10;" d="M 0.0006875 -25.510094 C 0.0006875 -26.221031 1.418656 -26.5765 1.418656 -27.283531 C 1.418656 -27.79525 0.72725 -28.240562 0.0006875 -28.7015 C -0.725875 -29.162437 -1.417281 -29.603844 -1.417281 -30.119469 C -1.417281 -30.631187 -0.725875 -31.072594 0.0006875 -31.537437 C 0.72725 -31.998375 1.418656 -32.439781 1.418656 -32.9515 C 1.418656 -33.467125 0.72725 -33.908531 0.0006875 -34.369469 C -0.725875 -34.830406 -1.417281 -35.275719 -1.417281 -35.787437 C -1.417281 -36.299156 -0.725875 -36.744469 0.0006875 -37.205406 C 0.72725 -37.666344 1.418656 -38.10775 1.418656 -38.623375 C 1.418656 -39.330406 0.0006875 -39.685875 0.0006875 -40.392906 L 0.0006875 -42.521812 " transform="matrix(1,0,0,-1,45.054,3.111)"/>
</g>
<path style="fill-rule:nonzero;fill:rgb(0%,0%,0%);fill-opacity:1;stroke-width:0.3985;stroke-linecap:butt;stroke-linejoin:miter;stroke:rgb(0%,0%,0%);stroke-opacity:1;stroke-miterlimit:10;" d="M -12.757125 0.001625 C -12.757125 0.782875 -13.389938 1.415688 -14.175094 1.415688 C -14.956344 1.415688 -15.589156 0.782875 -15.589156 0.001625 C -15.589156 -0.783531 -14.956344 -1.416344 -14.175094 -1.416344 C -13.389938 -1.416344 -12.757125 -0.783531 -12.757125 0.001625 Z M -12.757125 0.001625 " transform="matrix(1,0,0,-1,45.054,3.111)"/>
<path style="fill-rule:nonzero;fill:rgb(0%,0%,0%);fill-opacity:1;stroke-width:0.3985;stroke-linecap:butt;stroke-linejoin:miter;stroke:rgb(0%,0%,0%);stroke-opacity:1;stroke-miterlimit:10;" d="M 15.590531 0.001625 C 15.590531 0.782875 14.957719 1.415688 14.172562 1.415688 C 13.391312 1.415688 12.754594 0.782875 12.754594 0.001625 C 12.754594 -0.783531 13.391312 -1.416344 14.172562 -1.416344 C 14.957719 -1.416344 15.590531 -0.783531 15.590531 0.001625 Z M 15.590531 0.001625 " transform="matrix(1,0,0,-1,45.054,3.111)"/>
<path style=" stroke:none;fill-rule:nonzero;fill:rgb(0%,0%,0%);fill-opacity:1;" d="M 46.472656 45.632812 C 46.472656 44.847656 45.835938 44.214844 45.054688 44.214844 C 44.269531 44.214844 43.636719 44.847656 43.636719 45.632812 C 43.636719 46.414062 44.269531 47.046875 45.054688 47.046875 C 45.835938 47.046875 46.472656 46.414062 46.472656 45.632812 Z M 46.472656 45.632812 "/>
<g clip-path="url(#clip4)" clip-rule="nonzero">
<path style="fill:none;stroke-width:0.3985;stroke-linecap:butt;stroke-linejoin:miter;stroke:rgb(0%,0%,0%);stroke-opacity:1;stroke-miterlimit:10;" d="M 1.418656 -42.521812 C 1.418656 -41.736656 0.781937 -41.103844 0.0006875 -41.103844 C -0.784469 -41.103844 -1.417281 -41.736656 -1.417281 -42.521812 C -1.417281 -43.303062 -0.784469 -43.935875 0.0006875 -43.935875 C 0.781937 -43.935875 1.418656 -43.303062 1.418656 -42.521812 Z M 1.418656 -42.521812 " transform="matrix(1,0,0,-1,45.054,3.111)"/>
</g>
<g style="fill:rgb(0%,0%,0%);fill-opacity:1;">
  <use xlink:href="#glyph0-2" x="63.856" y="26.862"/>
</g>
<path style="fill:none;stroke-width:0.3985;stroke-linecap:butt;stroke-linejoin:miter;stroke:rgb(0%,0%,59.999084%);stroke-opacity:1;stroke-miterlimit:10;" d="M -19.842531 0.001625 C -19.436281 -0.580406 -18.073 -0.0569687 -17.66675 -0.639 C -17.369875 -1.056969 -17.686281 -1.818687 -18.014406 -2.611656 C -18.342531 -3.408531 -18.655031 -4.166344 -18.362063 -4.588219 C -18.069094 -5.006187 -17.248781 -4.971031 -16.389406 -4.935875 C -15.530031 -4.896812 -14.709719 -4.861656 -14.412844 -5.283531 C -14.119875 -5.7015 -14.432375 -6.463219 -14.764406 -7.256187 C -15.092531 -8.053062 -15.405031 -8.810875 -15.112063 -9.228844 C -14.815188 -9.650719 -13.994875 -9.615562 -13.1355 -9.580406 C -12.276125 -9.541344 -11.455813 -9.506187 -11.162844 -9.928062 C -10.756594 -10.506187 -11.713625 -11.611656 -11.307375 -12.189781 L -9.920656 -14.174156 " transform="matrix(1,0,0,-1,87.573,3.111)"/>
<path style="fill:none;stroke-width:0.3985;stroke-linecap:butt;stroke-linejoin:miter;stroke:rgb(0%,0%,59.999084%);stroke-opacity:1;stroke-miterlimit:10;" d="M 0.00121875 0.001625 C -0.405031 -0.580406 0.552 -1.681969 0.14575 -2.264 C -0.147219 -2.685875 -0.967531 -2.650719 -1.826906 -2.611656 C -2.686281 -2.5765 -3.506594 -2.541344 -3.803469 -2.959312 C -4.096438 -3.381187 -3.783938 -4.139 -3.455813 -4.935875 C -3.123781 -5.728844 -2.811281 -6.486656 -3.10425 -6.908531 C -3.401125 -7.330406 -4.221438 -7.29525 -5.080813 -7.256187 C -5.940188 -7.221031 -6.7605 -7.185875 -7.053469 -7.603844 C -7.346438 -8.025719 -7.033938 -8.783531 -6.705813 -9.580406 C -6.377688 -10.373375 -6.061281 -11.131187 -6.358156 -11.553062 C -6.764406 -12.135094 -8.127688 -11.611656 -8.533938 -12.189781 L -9.920656 -14.174156 " transform="matrix(1,0,0,-1,87.573,3.111)"/>
<path style="fill:none;stroke-width:0.3985;stroke-linecap:butt;stroke-linejoin:miter;stroke:rgb(0%,0%,59.999084%);stroke-opacity:1;stroke-miterlimit:10;" d="M 19.841062 0.001625 C 19.407469 -0.560875 20.309812 -1.709312 19.872312 -2.267906 C 19.559812 -2.674156 18.7395 -2.596031 17.884031 -2.517906 C 17.028562 -2.435875 16.212156 -2.361656 15.89575 -2.764 C 15.579344 -3.17025 15.856687 -3.943687 16.14575 -4.756187 C 16.434812 -5.564781 16.70825 -6.338219 16.391844 -6.744469 C 16.079344 -7.146812 15.262937 -7.072594 14.403562 -6.990562 C 13.548094 -6.912437 12.731687 -6.834312 12.415281 -7.240562 C 12.098875 -7.646812 12.376219 -8.42025 12.665281 -9.228844 C 12.954344 -10.041344 13.227781 -10.814781 12.911375 -11.217125 C 12.598875 -11.623375 11.782469 -11.549156 10.923094 -11.467125 C 10.067625 -11.385094 9.251219 -11.310875 8.934812 -11.717125 C 8.618406 -12.119469 8.89575 -12.892906 9.184812 -13.705406 C 9.473875 -14.514 9.747312 -15.287437 9.430906 -15.693687 C 9.118406 -16.099937 8.302 -16.021812 7.442625 -15.943687 C 6.587156 -15.861656 5.77075 -15.787437 5.454344 -16.189781 C 5.141844 -16.596031 5.415281 -17.369469 5.704344 -18.178062 C 5.993406 -18.990562 6.266844 -19.764 5.950437 -20.17025 C 5.637937 -20.572594 4.821531 -20.498375 3.962156 -20.416344 C 3.106687 -20.338219 2.290281 -20.260094 1.973875 -20.666344 C 1.661375 -21.072594 1.934812 -21.846031 2.223875 -22.654625 C 2.512937 -23.463219 2.786375 -24.236656 2.469969 -24.642906 C 2.036375 -25.2015 0.700437 -24.611656 0.266844 -25.17025 L 0.00121875 -25.510094 " transform="matrix(1,0,0,-1,87.573,3.111)"/>
<path style="fill:none;stroke-width:0.3985;stroke-linecap:butt;stroke-linejoin:miter;stroke:rgb(0%,0%,59.999084%);stroke-opacity:1;stroke-miterlimit:10;" d="M -9.920656 -14.174156 C -9.455813 -14.705406 -8.155031 -14.041344 -7.690188 -14.572594 C -7.350344 -14.959312 -7.580813 -15.748375 -7.823 -16.572594 C -8.065188 -17.396812 -8.29175 -18.185875 -7.955813 -18.572594 C -7.615969 -18.959312 -6.807375 -18.838219 -5.955813 -18.705406 C -5.10425 -18.5765 -4.29175 -18.455406 -3.955813 -18.838219 C -3.615969 -19.224937 -3.846438 -20.014 -4.088625 -20.838219 C -4.330813 -21.666344 -4.561281 -22.4515 -4.221438 -22.838219 C -3.8855 -23.224937 -3.073 -23.103844 -2.221438 -22.971031 C -1.369875 -22.842125 -0.561281 -22.721031 -0.221438 -23.10775 C 0.243406 -23.639 -0.588625 -24.838219 -0.123781 -25.373375 L 0.00121875 -25.510094 " transform="matrix(1,0,0,-1,87.573,3.111)"/>
<g clip-path="url(#clip5)" clip-rule="nonzero">
<path style="fill:none;stroke-width:0.3985;stroke-linecap:butt;stroke-linejoin:miter;stroke:rgb(0%,0%,59.999084%);stroke-opacity:1;stroke-miterlimit:10;" d="M 0.00121875 -25.510094 C 0.00121875 -26.221031 1.419187 -26.5765 1.419187 -27.283531 C 1.419187 -27.79525 0.723875 -28.240562 0.00121875 -28.7015 C -0.725344 -29.162437 -1.41675 -29.603844 -1.41675 -30.119469 C -1.41675 -30.631187 -0.725344 -31.072594 0.00121875 -31.537437 C 0.723875 -31.998375 1.419187 -32.439781 1.419187 -32.9515 C 1.419187 -33.467125 0.723875 -33.908531 0.00121875 -34.369469 C -0.725344 -34.830406 -1.41675 -35.275719 -1.41675 -35.787437 C -1.41675 -36.299156 -0.725344 -36.744469 0.00121875 -37.205406 C 0.723875 -37.666344 1.419187 -38.10775 1.419187 -38.623375 C 1.419187 -39.330406 0.00121875 -39.685875 0.00121875 -40.392906 L 0.00121875 -42.521812 " transform="matrix(1,0,0,-1,87.573,3.111)"/>
</g>
<path style="fill-rule:nonzero;fill:rgb(0%,0%,0%);fill-opacity:1;stroke-width:0.3985;stroke-linecap:butt;stroke-linejoin:miter;stroke:rgb(0%,0%,0%);stroke-opacity:1;stroke-miterlimit:10;" d="M -18.424563 0.001625 C -18.424563 0.782875 -19.061281 1.415688 -19.842531 1.415688 C -20.623781 1.415688 -21.2605 0.782875 -21.2605 0.001625 C -21.2605 -0.783531 -20.623781 -1.416344 -19.842531 -1.416344 C -19.061281 -1.416344 -18.424563 -0.783531 -18.424563 0.001625 Z M -18.424563 0.001625 " transform="matrix(1,0,0,-1,87.573,3.111)"/>
<path style="fill-rule:nonzero;fill:rgb(0%,0%,0%);fill-opacity:1;stroke-width:0.3985;stroke-linecap:butt;stroke-linejoin:miter;stroke:rgb(0%,0%,0%);stroke-opacity:1;stroke-miterlimit:10;" d="M 1.419187 0.001625 C 1.419187 0.782875 0.782469 1.415688 0.00121875 1.415688 C -0.783938 1.415688 -1.41675 0.782875 -1.41675 0.001625 C -1.41675 -0.783531 -0.783938 -1.416344 0.00121875 -1.416344 C 0.782469 -1.416344 1.419187 -0.783531 1.419187 0.001625 Z M 1.419187 0.001625 " transform="matrix(1,0,0,-1,87.573,3.111)"/>
<path style="fill-rule:nonzero;fill:rgb(0%,0%,0%);fill-opacity:1;stroke-width:0.3985;stroke-linecap:butt;stroke-linejoin:miter;stroke:rgb(0%,0%,0%);stroke-opacity:1;stroke-miterlimit:10;" d="M 21.259031 0.001625 C 21.259031 0.782875 20.626219 1.415688 19.841062 1.415688 C 19.059812 1.415688 18.427 0.782875 18.427 0.001625 C 18.427 -0.783531 19.059812 -1.416344 19.841062 -1.416344 C 20.626219 -1.416344 21.259031 -0.783531 21.259031 0.001625 Z M 21.259031 0.001625 " transform="matrix(1,0,0,-1,87.573,3.111)"/>
<path style=" stroke:none;fill-rule:nonzero;fill:rgb(0%,0%,0%);fill-opacity:1;" d="M 88.992188 45.632812 C 88.992188 44.847656 88.355469 44.214844 87.574219 44.214844 C 86.789062 44.214844 86.15625 44.847656 86.15625 45.632812 C 86.15625 46.414062 86.789062 47.046875 87.574219 47.046875 C 88.355469 47.046875 88.992188 46.414062 88.992188 45.632812 Z M 88.992188 45.632812 "/>
<g clip-path="url(#clip6)" clip-rule="nonzero">
<path style="fill:none;stroke-width:0.3985;stroke-linecap:butt;stroke-linejoin:miter;stroke:rgb(0%,0%,0%);stroke-opacity:1;stroke-miterlimit:10;" d="M 1.419187 -42.521812 C 1.419187 -41.736656 0.782469 -41.103844 0.00121875 -41.103844 C -0.783938 -41.103844 -1.41675 -41.736656 -1.41675 -42.521812 C -1.41675 -43.303062 -0.783938 -43.935875 0.00121875 -43.935875 C 0.782469 -43.935875 1.419187 -43.303062 1.419187 -42.521812 Z M 1.419187 -42.521812 " transform="matrix(1,0,0,-1,87.573,3.111)"/>
</g>
<g style="fill:rgb(0%,0%,0%);fill-opacity:1;">
  <use xlink:href="#glyph0-2" x="107.793" y="26.862"/>
</g>
<path style="fill:none;stroke-width:0.3985;stroke-linecap:butt;stroke-linejoin:miter;stroke:rgb(0%,0%,59.999084%);stroke-opacity:1;stroke-miterlimit:10;" d="M -19.844031 0.001625 C -19.406531 -0.560875 -18.070594 0.032875 -17.637 -0.529625 C -17.320594 -0.931969 -17.594031 -1.705406 -17.883094 -2.517906 C -18.172156 -3.3265 -18.4495 -4.099937 -18.133094 -4.506187 C -17.816688 -4.912437 -17.000281 -4.834312 -16.144813 -4.756187 C -15.289344 -4.674156 -14.469031 -4.599937 -14.156531 -5.002281 C -13.840125 -5.408531 -14.113563 -6.181969 -14.402625 -6.990562 C -14.695594 -7.803062 -14.969031 -8.5765 -14.652625 -8.98275 C -14.340125 -9.385094 -13.519813 -9.310875 -12.664344 -9.228844 C -11.808875 -9.150719 -10.988563 -9.072594 -10.676063 -9.478844 C -10.359656 -9.885094 -10.633094 -10.658531 -10.926063 -11.467125 C -11.215125 -12.275719 -11.488563 -13.049156 -11.172156 -13.455406 C -10.859656 -13.861656 -10.039344 -13.783531 -9.183875 -13.705406 C -8.328406 -13.623375 -7.512 -13.549156 -7.195594 -13.9515 C -6.879188 -14.35775 -7.156531 -15.131187 -7.445594 -15.943687 C -7.734656 -16.752281 -8.008094 -17.525719 -7.691688 -17.931969 C -7.379188 -18.334312 -6.558875 -18.260094 -5.703406 -18.178062 C -4.847938 -18.099937 -4.031531 -18.021812 -3.715125 -18.428062 C -3.398719 -18.834312 -3.676063 -19.60775 -3.965125 -20.416344 C -4.254188 -21.228844 -4.527625 -22.002281 -4.211219 -22.404625 C -3.898719 -22.810875 -3.078406 -22.736656 -2.222938 -22.654625 C -1.367469 -22.572594 -0.551063 -22.498375 -0.234656 -22.904625 C 0.202844 -23.463219 -0.6995 -24.611656 -0.265906 -25.17025 L -0.00028125 -25.510094 " transform="matrix(1,0,0,-1,135.762,3.111)"/>
<path style="fill:none;stroke-width:0.3985;stroke-linecap:butt;stroke-linejoin:miter;stroke:rgb(0%,0%,59.999084%);stroke-opacity:1;stroke-miterlimit:10;" d="M -0.00028125 0.001625 C -0.00028125 -0.709312 1.417687 -1.064781 1.417687 -1.771812 C 1.417687 -2.283531 0.726281 -2.728844 -0.00028125 -3.189781 C -0.726844 -3.650719 -1.41825 -4.092125 -1.41825 -4.60775 C -1.41825 -5.119469 -0.726844 -5.560875 -0.00028125 -6.021812 C 0.726281 -6.486656 1.417687 -6.928062 1.417687 -7.439781 C 1.417687 -7.955406 0.726281 -8.396812 -0.00028125 -8.85775 C -0.726844 -9.318687 -1.41825 -9.764 -1.41825 -10.275719 C -1.41825 -10.787437 -0.726844 -11.23275 -0.00028125 -11.693687 C 0.726281 -12.154625 1.417687 -12.596031 1.417687 -13.111656 C 1.417687 -13.623375 0.726281 -14.064781 -0.00028125 -14.525719 C -0.726844 -14.990562 -1.41825 -15.431969 -1.41825 -15.943687 C -1.41825 -16.459312 -0.726844 -16.900719 -0.00028125 -17.361656 C 0.726281 -17.822594 1.417687 -18.267906 1.417687 -18.779625 C 1.417687 -19.291344 0.726281 -19.736656 -0.00028125 -20.197594 C -0.726844 -20.658531 -1.41825 -21.099937 -1.41825 -21.615562 C -1.41825 -22.322594 -0.00028125 -22.678062 -0.00028125 -23.385094 L -0.00028125 -25.510094 " transform="matrix(1,0,0,-1,135.762,3.111)"/>
<path style="fill:none;stroke-width:0.3985;stroke-linecap:butt;stroke-linejoin:miter;stroke:rgb(0%,0%,59.999084%);stroke-opacity:1;stroke-miterlimit:10;" d="M 19.843469 0.001625 C 19.405969 -0.560875 20.308312 -1.709312 19.874719 -2.267906 C 19.558312 -2.674156 18.741906 -2.596031 17.886437 -2.517906 C 17.027062 -2.435875 16.210656 -2.361656 15.89425 -2.764 C 15.58175 -3.17025 15.855187 -3.943687 16.14425 -4.756187 C 16.433312 -5.564781 16.70675 -6.338219 16.39425 -6.744469 C 16.077844 -7.146812 15.261437 -7.072594 14.405969 -6.990562 C 13.546594 -6.912437 12.730187 -6.834312 12.413781 -7.240562 C 12.101281 -7.646812 12.374719 -8.42025 12.663781 -9.228844 C 12.952844 -10.041344 13.226281 -10.814781 12.913781 -11.217125 C 12.597375 -11.623375 11.780969 -11.549156 10.9255 -11.467125 C 10.066125 -11.385094 9.249719 -11.310875 8.937219 -11.717125 C 8.620812 -12.119469 8.89425 -12.892906 9.183312 -13.705406 C 9.472375 -14.514 9.745812 -15.287437 9.433312 -15.693687 C 9.116906 -16.099937 8.3005 -16.021812 7.445031 -15.943687 C 6.585656 -15.861656 5.76925 -15.787437 5.45675 -16.189781 C 5.140344 -16.596031 5.413781 -17.369469 5.702844 -18.178062 C 5.991906 -18.990562 6.265344 -19.764 5.952844 -20.17025 C 5.636437 -20.572594 4.820031 -20.498375 3.964562 -20.416344 C 3.105187 -20.338219 2.288781 -20.260094 1.976281 -20.666344 C 1.659875 -21.072594 1.933312 -21.846031 2.222375 -22.654625 C 2.511437 -23.463219 2.784875 -24.236656 2.472375 -24.642906 C 2.034875 -25.2015 0.698937 -24.611656 0.265344 -25.17025 L -0.00028125 -25.510094 " transform="matrix(1,0,0,-1,135.762,3.111)"/>
<g clip-path="url(#clip7)" clip-rule="nonzero">
<path style="fill:none;stroke-width:0.3985;stroke-linecap:butt;stroke-linejoin:miter;stroke:rgb(0%,0%,59.999084%);stroke-opacity:1;stroke-miterlimit:10;" d="M -0.00028125 -25.510094 C -0.00028125 -26.221031 1.417687 -26.5765 1.417687 -27.283531 C 1.417687 -27.79525 0.726281 -28.240562 -0.00028125 -28.7015 C -0.726844 -29.162437 -1.41825 -29.603844 -1.41825 -30.119469 C -1.41825 -30.631187 -0.726844 -31.072594 -0.00028125 -31.537437 C 0.726281 -31.998375 1.417687 -32.439781 1.417687 -32.9515 C 1.417687 -33.467125 0.726281 -33.908531 -0.00028125 -34.369469 C -0.726844 -34.830406 -1.41825 -35.275719 -1.41825 -35.787437 C -1.41825 -36.299156 -0.726844 -36.744469 -0.00028125 -37.205406 C 0.726281 -37.666344 1.417687 -38.10775 1.417687 -38.623375 C 1.417687 -39.330406 -0.00028125 -39.685875 -0.00028125 -40.392906 L -0.00028125 -42.521812 " transform="matrix(1,0,0,-1,135.762,3.111)"/>
</g>
<path style="fill-rule:nonzero;fill:rgb(0%,0%,0%);fill-opacity:1;stroke-width:0.3985;stroke-linecap:butt;stroke-linejoin:miter;stroke:rgb(0%,0%,0%);stroke-opacity:1;stroke-miterlimit:10;" d="M -18.426063 0.001625 C -18.426063 0.782875 -19.058875 1.415688 -19.844031 1.415688 C -20.625281 1.415688 -21.262 0.782875 -21.262 0.001625 C -21.262 -0.783531 -20.625281 -1.416344 -19.844031 -1.416344 C -19.058875 -1.416344 -18.426063 -0.783531 -18.426063 0.001625 Z M -18.426063 0.001625 " transform="matrix(1,0,0,-1,135.762,3.111)"/>
<path style="fill-rule:nonzero;fill:rgb(0%,0%,0%);fill-opacity:1;stroke-width:0.3985;stroke-linecap:butt;stroke-linejoin:miter;stroke:rgb(0%,0%,0%);stroke-opacity:1;stroke-miterlimit:10;" d="M 1.417687 0.001625 C 1.417687 0.782875 0.780969 1.415688 -0.00028125 1.415688 C -0.781531 1.415688 -1.41825 0.782875 -1.41825 0.001625 C -1.41825 -0.783531 -0.781531 -1.416344 -0.00028125 -1.416344 C 0.780969 -1.416344 1.417687 -0.783531 1.417687 0.001625 Z M 1.417687 0.001625 " transform="matrix(1,0,0,-1,135.762,3.111)"/>
<path style="fill-rule:nonzero;fill:rgb(0%,0%,0%);fill-opacity:1;stroke-width:0.3985;stroke-linecap:butt;stroke-linejoin:miter;stroke:rgb(0%,0%,0%);stroke-opacity:1;stroke-miterlimit:10;" d="M 21.261437 0.001625 C 21.261437 0.782875 20.624719 1.415688 19.843469 1.415688 C 19.058312 1.415688 18.4255 0.782875 18.4255 0.001625 C 18.4255 -0.783531 19.058312 -1.416344 19.843469 -1.416344 C 20.624719 -1.416344 21.261437 -0.783531 21.261437 0.001625 Z M 21.261437 0.001625 " transform="matrix(1,0,0,-1,135.762,3.111)"/>
<path style=" stroke:none;fill-rule:nonzero;fill:rgb(0%,0%,0%);fill-opacity:1;" d="M 137.179688 45.632812 C 137.179688 44.847656 136.542969 44.214844 135.761719 44.214844 C 134.980469 44.214844 134.34375 44.847656 134.34375 45.632812 C 134.34375 46.414062 134.980469 47.046875 135.761719 47.046875 C 136.542969 47.046875 137.179688 46.414062 137.179688 45.632812 Z M 137.179688 45.632812 "/>
<g clip-path="url(#clip8)" clip-rule="nonzero">
<path style="fill:none;stroke-width:0.3985;stroke-linecap:butt;stroke-linejoin:miter;stroke:rgb(0%,0%,0%);stroke-opacity:1;stroke-miterlimit:10;" d="M 1.417687 -42.521812 C 1.417687 -41.736656 0.780969 -41.103844 -0.00028125 -41.103844 C -0.781531 -41.103844 -1.41825 -41.736656 -1.41825 -42.521812 C -1.41825 -43.303062 -0.781531 -43.935875 -0.00028125 -43.935875 C 0.780969 -43.935875 1.417687 -43.303062 1.417687 -42.521812 Z M 1.417687 -42.521812 " transform="matrix(1,0,0,-1,135.762,3.111)"/>
</g>
<g style="fill:rgb(0%,0%,0%);fill-opacity:1;">
  <use xlink:href="#glyph0-2" x="154.565" y="26.862"/>
</g>
<path style="fill:none;stroke-width:0.3985;stroke-linecap:butt;stroke-linejoin:miter;stroke:rgb(0%,0%,59.999084%);stroke-opacity:1;stroke-miterlimit:10;" d="M -14.172625 0.001625 C -13.672625 -0.502281 -12.418719 0.251625 -11.918719 -0.252281 C -11.555437 -0.611656 -11.731219 -1.416344 -11.918719 -2.256187 C -12.106219 -3.096031 -12.282 -3.896812 -11.918719 -4.260094 C -11.555437 -4.623375 -10.754656 -4.447594 -9.914812 -4.260094 C -9.074969 -4.072594 -8.274187 -3.896812 -7.910906 -4.260094 C -7.547625 -4.623375 -7.723406 -5.424156 -7.910906 -6.264 C -8.0945 -7.103844 -8.274187 -7.904625 -7.910906 -8.267906 C -7.547625 -8.631187 -6.746844 -8.455406 -5.907 -8.267906 C -5.067156 -8.080406 -4.262469 -7.904625 -3.899187 -8.267906 C -3.539812 -8.631187 -3.715594 -9.431969 -3.899187 -10.271812 C -4.086687 -11.111656 -4.262469 -11.912437 -3.899187 -12.275719 C -3.399187 -12.779625 -2.145281 -12.025719 -1.645281 -12.525719 L -0.00075 -14.174156 " transform="matrix(1,0,0,-1,178.282,3.111)"/>
<path style="fill:none;stroke-width:0.3985;stroke-linecap:butt;stroke-linejoin:miter;stroke:rgb(0%,0%,59.999084%);stroke-opacity:1;stroke-miterlimit:10;" d="M 14.175031 0.001625 C 13.671125 -0.502281 14.425031 -1.752281 13.921125 -2.256187 C 13.56175 -2.619469 12.757063 -2.439781 11.917219 -2.256187 C 11.077375 -2.068687 10.276594 -1.892906 9.913313 -2.256187 C 9.550031 -2.619469 9.725813 -3.42025 9.913313 -4.260094 C 10.100813 -5.099937 10.276594 -5.900719 9.913313 -6.264 C 9.550031 -6.627281 8.74925 -6.4515 7.909406 -6.264 C 7.069563 -6.0765 6.268781 -5.900719 5.9055 -6.264 C 5.542219 -6.627281 5.718 -7.428062 5.9055 -8.267906 C 6.093 -9.10775 6.268781 -9.908531 5.9055 -10.271812 C 5.542219 -10.635094 4.741438 -10.459312 3.901594 -10.271812 C 3.06175 -10.084312 2.260969 -9.908531 1.897688 -10.271812 C 1.393781 -10.771812 2.147688 -12.025719 1.647688 -12.525719 L -0.00075 -14.174156 " transform="matrix(1,0,0,-1,178.282,3.111)"/>
<g clip-path="url(#clip9)" clip-rule="nonzero">
<path style="fill:none;stroke-width:0.3985;stroke-linecap:butt;stroke-linejoin:miter;stroke:rgb(0%,0%,59.999084%);stroke-opacity:1;stroke-miterlimit:10;" d="M -0.00075 -28.346031 C -0.50075 -28.846031 0.24925 -30.099937 -0.25075 -30.599937 C -0.614031 -30.963219 -1.414812 -30.787437 -2.254656 -30.599937 C -3.0945 -30.416344 -3.895281 -30.240562 -4.258562 -30.599937 C -4.621844 -30.963219 -4.446062 -31.767906 -4.258562 -32.60775 C -4.071062 -33.447594 -3.895281 -34.248375 -4.258562 -34.611656 C -4.621844 -34.974937 -5.422625 -34.79525 -6.262469 -34.611656 C -7.102312 -34.424156 -7.907 -34.248375 -8.266375 -34.611656 C -8.629656 -34.974937 -8.453875 -35.775719 -8.266375 -36.615562 C -8.082781 -37.455406 -7.907 -38.256187 -8.266375 -38.619469 C -8.629656 -38.98275 -9.434344 -38.806969 -10.274187 -38.619469 C -11.114031 -38.431969 -11.914812 -38.256187 -12.278094 -38.619469 C -12.778094 -39.119469 -12.028094 -40.373375 -12.528094 -40.873375 L -14.172625 -42.521812 " transform="matrix(1,0,0,-1,178.282,3.111)"/>
</g>
<path style="fill:none;stroke-width:0.3985;stroke-linecap:butt;stroke-linejoin:miter;stroke:rgb(0%,0%,59.999084%);stroke-opacity:1;stroke-miterlimit:10;" d="M -0.00075 -14.174156 C -0.00075 -14.881187 1.417219 -15.236656 1.417219 -15.943687 C 1.417219 -16.459312 0.725813 -16.900719 -0.00075 -17.361656 C -0.727312 -17.822594 -1.418719 -18.267906 -1.418719 -18.779625 C -1.418719 -19.291344 -0.727312 -19.736656 -0.00075 -20.197594 C 0.725813 -20.658531 1.417219 -21.099937 1.417219 -21.615562 C 1.417219 -22.127281 0.725813 -22.568687 -0.00075 -23.033531 C -0.727312 -23.494469 -1.418719 -23.935875 -1.418719 -24.447594 C -1.418719 -25.158531 -0.00075 -25.514 -0.00075 -26.221031 L -0.00075 -28.346031 " transform="matrix(1,0,0,-1,178.282,3.111)"/>
<g clip-path="url(#clip10)" clip-rule="nonzero">
<path style="fill:none;stroke-width:0.3985;stroke-linecap:butt;stroke-linejoin:miter;stroke:rgb(0%,0%,59.999084%);stroke-opacity:1;stroke-miterlimit:10;" d="M -0.00075 -28.346031 C 0.49925 -28.846031 1.753156 -28.096031 2.253156 -28.596031 C 2.616438 -28.959312 2.440656 -29.760094 2.253156 -30.599937 C 2.069563 -31.439781 1.893781 -32.244469 2.253156 -32.60775 C 2.616438 -32.967125 3.421125 -32.791344 4.260969 -32.60775 C 5.100813 -32.42025 5.901594 -32.244469 6.264875 -32.60775 C 6.628156 -32.967125 6.448469 -33.771812 6.264875 -34.611656 C 6.077375 -35.4515 5.901594 -36.252281 6.264875 -36.615562 C 6.628156 -36.978844 7.428938 -36.803062 8.268781 -36.615562 C 9.108625 -36.428062 9.909406 -36.252281 10.272688 -36.615562 C 10.635969 -36.978844 10.460188 -37.779625 10.272688 -38.619469 C 10.085188 -39.459312 9.909406 -40.260094 10.272688 -40.623375 C 10.772688 -41.123375 12.026594 -40.373375 12.526594 -40.873375 L 14.175031 -42.521812 " transform="matrix(1,0,0,-1,178.282,3.111)"/>
</g>
<path style="fill-rule:nonzero;fill:rgb(0%,0%,0%);fill-opacity:1;stroke-width:0.3985;stroke-linecap:butt;stroke-linejoin:miter;stroke:rgb(0%,0%,0%);stroke-opacity:1;stroke-miterlimit:10;" d="M -12.754656 0.001625 C -12.754656 0.782875 -13.391375 1.415688 -14.172625 1.415688 C -14.957781 1.415688 -15.590594 0.782875 -15.590594 0.001625 C -15.590594 -0.783531 -14.957781 -1.416344 -14.172625 -1.416344 C -13.391375 -1.416344 -12.754656 -0.783531 -12.754656 0.001625 Z M -12.754656 0.001625 " transform="matrix(1,0,0,-1,178.282,3.111)"/>
<path style="fill-rule:nonzero;fill:rgb(0%,0%,0%);fill-opacity:1;stroke-width:0.3985;stroke-linecap:butt;stroke-linejoin:miter;stroke:rgb(0%,0%,0%);stroke-opacity:1;stroke-miterlimit:10;" d="M 15.589094 0.001625 C 15.589094 0.782875 14.956281 1.415688 14.175031 1.415688 C 13.389875 1.415688 12.757063 0.782875 12.757063 0.001625 C 12.757063 -0.783531 13.389875 -1.416344 14.175031 -1.416344 C 14.956281 -1.416344 15.589094 -0.783531 15.589094 0.001625 Z M 15.589094 0.001625 " transform="matrix(1,0,0,-1,178.282,3.111)"/>
<path style=" stroke:none;fill-rule:nonzero;fill:rgb(0%,0%,0%);fill-opacity:1;" d="M 165.527344 45.632812 C 165.527344 44.847656 164.890625 44.214844 164.109375 44.214844 C 163.324219 44.214844 162.691406 44.847656 162.691406 45.632812 C 162.691406 46.414062 163.324219 47.046875 164.109375 47.046875 C 164.890625 47.046875 165.527344 46.414062 165.527344 45.632812 Z M 165.527344 45.632812 "/>
<g clip-path="url(#clip11)" clip-rule="nonzero">
<path style="fill:none;stroke-width:0.3985;stroke-linecap:butt;stroke-linejoin:miter;stroke:rgb(0%,0%,0%);stroke-opacity:1;stroke-miterlimit:10;" d="M -12.754656 -42.521812 C -12.754656 -41.736656 -13.391375 -41.103844 -14.172625 -41.103844 C -14.957781 -41.103844 -15.590594 -41.736656 -15.590594 -42.521812 C -15.590594 -43.303062 -14.957781 -43.935875 -14.172625 -43.935875 C -13.391375 -43.935875 -12.754656 -43.303062 -12.754656 -42.521812 Z M -12.754656 -42.521812 " transform="matrix(1,0,0,-1,178.282,3.111)"/>
</g>
<path style=" stroke:none;fill-rule:nonzero;fill:rgb(0%,0%,0%);fill-opacity:1;" d="M 193.871094 45.632812 C 193.871094 44.847656 193.238281 44.214844 192.457031 44.214844 C 191.671875 44.214844 191.039062 44.847656 191.039062 45.632812 C 191.039062 46.414062 191.671875 47.046875 192.457031 47.046875 C 193.238281 47.046875 193.871094 46.414062 193.871094 45.632812 Z M 193.871094 45.632812 "/>
<g clip-path="url(#clip12)" clip-rule="nonzero">
<path style="fill:none;stroke-width:0.3985;stroke-linecap:butt;stroke-linejoin:miter;stroke:rgb(0%,0%,0%);stroke-opacity:1;stroke-miterlimit:10;" d="M 15.589094 -42.521812 C 15.589094 -41.736656 14.956281 -41.103844 14.175031 -41.103844 C 13.389875 -41.103844 12.757063 -41.736656 12.757063 -42.521812 C 12.757063 -43.303062 13.389875 -43.935875 14.175031 -43.935875 C 14.956281 -43.935875 15.589094 -43.303062 15.589094 -42.521812 Z M 15.589094 -42.521812 " transform="matrix(1,0,0,-1,178.282,3.111)"/>
</g>
<g style="fill:rgb(0%,0%,0%);fill-opacity:1;">
  <use xlink:href="#glyph0-2" x="194.25" y="26.862"/>
</g>
<path style="fill:none;stroke-width:0.3985;stroke-linecap:butt;stroke-linejoin:miter;stroke:rgb(0%,0%,59.999084%);stroke-opacity:1;stroke-miterlimit:10;" d="M -14.174031 0.001625 C -13.799031 -0.599937 -12.408406 -0.150719 -12.033406 -0.752281 C -11.759969 -1.185875 -12.111531 -1.928062 -12.482625 -2.705406 C -12.853719 -3.478844 -13.205281 -4.221031 -12.93575 -4.658531 C -12.662312 -5.092125 -11.842 -5.099937 -10.982625 -5.10775 C -10.119344 -5.115562 -9.299031 -5.123375 -9.0295 -5.556969 C -8.756062 -5.994469 -9.107625 -6.736656 -9.478719 -7.510094 C -9.849812 -8.287437 -10.201375 -9.029625 -9.927937 -9.463219 C -9.658406 -9.900719 -8.838094 -9.908531 -7.974812 -9.916344 C -7.115437 -9.924156 -6.295125 -9.931969 -6.021687 -10.365562 C -5.752156 -10.803062 -6.103719 -11.541344 -6.474812 -12.318687 C -6.845906 -13.096031 -7.197469 -13.838219 -6.924031 -14.271812 C -6.6545 -14.705406 -5.830281 -14.717125 -4.970906 -14.721031 C -4.111531 -14.728844 -3.291219 -14.736656 -3.017781 -15.174156 C -2.74825 -15.60775 -3.099812 -16.349937 -3.470906 -17.127281 C -3.838094 -17.904625 -4.193562 -18.642906 -3.920125 -19.080406 C -3.646687 -19.514 -2.826375 -19.521812 -1.967 -19.529625 C -1.107625 -19.537437 -0.287312 -19.54525 -0.013875 -19.98275 C 0.361125 -20.580406 -0.650594 -21.635094 -0.275594 -22.236656 L 0.00175 -22.678062 " transform="matrix(1,0,0,-1,217.967,3.111)"/>
<path style="fill:none;stroke-width:0.3985;stroke-linecap:butt;stroke-linejoin:miter;stroke:rgb(0%,0%,59.999084%);stroke-opacity:1;stroke-miterlimit:10;" d="M 14.173625 0.001625 C 13.798625 -0.599937 14.810344 -1.650719 14.435344 -2.252281 C 14.165813 -2.689781 13.341594 -2.697594 12.482219 -2.705406 C 11.622844 -2.713219 10.802531 -2.721031 10.529094 -3.154625 C 10.259563 -3.588219 10.611125 -4.330406 10.982219 -5.10775 C 11.353313 -5.885094 11.704875 -6.627281 11.431438 -7.060875 C 11.158 -7.494469 10.337688 -7.506187 9.478313 -7.510094 C 8.618938 -7.517906 7.798625 -7.525719 7.525188 -7.963219 C 7.255656 -8.396812 7.607219 -9.139 7.978313 -9.916344 C 8.3455 -10.693687 8.700969 -11.431969 8.427531 -11.869469 C 8.154094 -12.303062 7.333781 -12.310875 6.474406 -12.318687 C 5.615031 -12.3265 4.794719 -12.334312 4.521281 -12.771812 C 4.247844 -13.205406 4.603313 -13.947594 4.9705 -14.721031 C 5.341594 -15.498375 5.693156 -16.240562 5.423625 -16.674156 C 5.150188 -17.111656 4.329875 -17.119469 3.4705 -17.127281 C 2.611125 -17.135094 1.786906 -17.142906 1.517375 -17.5765 C 1.243938 -18.014 1.5955 -18.752281 1.966594 -19.529625 C 2.337688 -20.306969 2.68925 -21.049156 2.419719 -21.48275 C 2.040813 -22.084312 0.654094 -21.635094 0.275188 -22.236656 L 0.00175 -22.678062 " transform="matrix(1,0,0,-1,217.967,3.111)"/>
<g clip-path="url(#clip13)" clip-rule="nonzero">
<path style="fill:none;stroke-width:0.3985;stroke-linecap:butt;stroke-linejoin:miter;stroke:rgb(0%,0%,59.999084%);stroke-opacity:1;stroke-miterlimit:10;" d="M 0.00175 -22.678062 C -0.412312 -23.252281 0.536906 -24.365562 0.122844 -24.943687 C -0.174031 -25.361656 -0.994344 -25.318687 -1.853719 -25.271812 C -2.713094 -25.224937 -3.533406 -25.185875 -3.830281 -25.599937 C -4.127156 -26.017906 -3.822469 -26.779625 -3.502156 -27.580406 C -3.177937 -28.377281 -2.87325 -29.139 -3.170125 -29.556969 C -3.470906 -29.974937 -4.291219 -29.931969 -5.146687 -29.885094 C -6.006062 -29.838219 -6.826375 -29.799156 -7.127156 -30.213219 C -7.424031 -30.631187 -7.119344 -31.392906 -6.795125 -32.189781 C -6.474812 -32.990562 -6.170125 -33.752281 -6.467 -34.17025 C -6.763875 -34.584312 -7.584187 -34.54525 -8.443562 -34.498375 C -9.302937 -34.4515 -10.12325 -34.408531 -10.420125 -34.8265 C -10.717 -35.244469 -10.412312 -36.006187 -10.092 -36.803062 C -9.767781 -37.603844 -9.463094 -38.365562 -9.759969 -38.783531 C -10.06075 -39.197594 -10.881062 -39.158531 -11.736531 -39.111656 C -12.595906 -39.064781 -13.416219 -39.021812 -13.717 -39.439781 C -14.127156 -40.017906 -13.181844 -41.131187 -13.592 -41.705406 L -14.174031 -42.521812 " transform="matrix(1,0,0,-1,217.967,3.111)"/>
</g>
<g clip-path="url(#clip14)" clip-rule="nonzero">
<path style="fill:none;stroke-width:0.3985;stroke-linecap:butt;stroke-linejoin:miter;stroke:rgb(0%,0%,59.999084%);stroke-opacity:1;stroke-miterlimit:10;" d="M 0.00175 -22.678062 C 0.411906 -23.252281 1.771281 -22.717125 2.181438 -23.29525 C 2.482219 -23.713219 2.173625 -24.474937 1.853313 -25.271812 C 1.533 -26.068687 1.224406 -26.830406 1.525188 -27.248375 C 1.822063 -27.666344 2.642375 -27.623375 3.50175 -27.580406 C 4.361125 -27.533531 5.181438 -27.490562 5.478313 -27.908531 C 5.775188 -28.3265 5.4705 -29.088219 5.150188 -29.885094 C 4.825969 -30.681969 4.521281 -31.443687 4.818156 -31.861656 C 5.118938 -32.279625 5.935344 -32.236656 6.794719 -32.189781 C 7.654094 -32.146812 8.474406 -32.103844 8.771281 -32.521812 C 9.072063 -32.939781 8.763469 -33.7015 8.443156 -34.498375 C 8.122844 -35.29525 7.81425 -36.056969 8.115031 -36.474937 C 8.411906 -36.892906 9.232219 -36.849937 10.091594 -36.803062 C 10.950969 -36.760094 11.771281 -36.717125 12.068156 -37.135094 C 12.365031 -37.553062 12.060344 -38.314781 11.740031 -39.111656 C 11.415813 -39.908531 11.111125 -40.67025 11.408 -41.088219 C 11.822063 -41.666344 13.181438 -41.131187 13.591594 -41.705406 L 14.173625 -42.521812 " transform="matrix(1,0,0,-1,217.967,3.111)"/>
</g>
<path style="fill-rule:nonzero;fill:rgb(0%,0%,0%);fill-opacity:1;stroke-width:0.3985;stroke-linecap:butt;stroke-linejoin:miter;stroke:rgb(0%,0%,0%);stroke-opacity:1;stroke-miterlimit:10;" d="M -12.756062 0.001625 C -12.756062 0.782875 -13.388875 1.415688 -14.174031 1.415688 C -14.955281 1.415688 -15.592 0.782875 -15.592 0.001625 C -15.592 -0.783531 -14.955281 -1.416344 -14.174031 -1.416344 C -13.388875 -1.416344 -12.756062 -0.783531 -12.756062 0.001625 Z M -12.756062 0.001625 " transform="matrix(1,0,0,-1,217.967,3.111)"/>
<path style="fill-rule:nonzero;fill:rgb(0%,0%,0%);fill-opacity:1;stroke-width:0.3985;stroke-linecap:butt;stroke-linejoin:miter;stroke:rgb(0%,0%,0%);stroke-opacity:1;stroke-miterlimit:10;" d="M 15.591594 0.001625 C 15.591594 0.782875 14.954875 1.415688 14.173625 1.415688 C 13.392375 1.415688 12.755656 0.782875 12.755656 0.001625 C 12.755656 -0.783531 13.392375 -1.416344 14.173625 -1.416344 C 14.954875 -1.416344 15.591594 -0.783531 15.591594 0.001625 Z M 15.591594 0.001625 " transform="matrix(1,0,0,-1,217.967,3.111)"/>
<path style=" stroke:none;fill-rule:nonzero;fill:rgb(0%,0%,0%);fill-opacity:1;" d="M 205.210938 45.632812 C 205.210938 44.847656 204.578125 44.214844 203.792969 44.214844 C 203.011719 44.214844 202.375 44.847656 202.375 45.632812 C 202.375 46.414062 203.011719 47.046875 203.792969 47.046875 C 204.578125 47.046875 205.210938 46.414062 205.210938 45.632812 Z M 205.210938 45.632812 "/>
<g clip-path="url(#clip15)" clip-rule="nonzero">
<path style="fill:none;stroke-width:0.3985;stroke-linecap:butt;stroke-linejoin:miter;stroke:rgb(0%,0%,0%);stroke-opacity:1;stroke-miterlimit:10;" d="M -12.756062 -42.521812 C -12.756062 -41.736656 -13.388875 -41.103844 -14.174031 -41.103844 C -14.955281 -41.103844 -15.592 -41.736656 -15.592 -42.521812 C -15.592 -43.303062 -14.955281 -43.935875 -14.174031 -43.935875 C -13.388875 -43.935875 -12.756062 -43.303062 -12.756062 -42.521812 Z M -12.756062 -42.521812 " transform="matrix(1,0,0,-1,217.967,3.111)"/>
</g>
<path style=" stroke:none;fill-rule:nonzero;fill:rgb(0%,0%,0%);fill-opacity:1;" d="M 233.558594 45.632812 C 233.558594 44.847656 232.921875 44.214844 232.140625 44.214844 C 231.359375 44.214844 230.722656 44.847656 230.722656 45.632812 C 230.722656 46.414062 231.359375 47.046875 232.140625 47.046875 C 232.921875 47.046875 233.558594 46.414062 233.558594 45.632812 Z M 233.558594 45.632812 "/>
<g clip-path="url(#clip16)" clip-rule="nonzero">
<path style="fill:none;stroke-width:0.3985;stroke-linecap:butt;stroke-linejoin:miter;stroke:rgb(0%,0%,0%);stroke-opacity:1;stroke-miterlimit:10;" d="M 15.591594 -42.521812 C 15.591594 -41.736656 14.954875 -41.103844 14.173625 -41.103844 C 13.392375 -41.103844 12.755656 -41.736656 12.755656 -42.521812 C 12.755656 -43.303062 13.392375 -43.935875 14.173625 -43.935875 C 14.954875 -43.935875 15.591594 -43.303062 15.591594 -42.521812 Z M 15.591594 -42.521812 " transform="matrix(1,0,0,-1,217.967,3.111)"/>
</g>
<g style="fill:rgb(0%,0%,0%);fill-opacity:1;">
  <use xlink:href="#glyph0-2" x="231.1" y="26.862"/>
</g>
<path style="fill:none;stroke-width:0.3985;stroke-linecap:butt;stroke-linejoin:miter;stroke:rgb(0%,0%,59.999084%);stroke-opacity:1;stroke-miterlimit:10;" d="M -14.171531 0.001625 C -14.171531 -0.709312 -12.757469 -1.064781 -12.757469 -1.771812 C -12.757469 -2.283531 -13.448875 -2.728844 -14.171531 -3.189781 C -14.898094 -3.650719 -15.5895 -4.092125 -15.5895 -4.60775 C -15.5895 -5.119469 -14.898094 -5.560875 -14.171531 -6.021812 C -13.448875 -6.486656 -12.757469 -6.928062 -12.757469 -7.439781 C -12.757469 -7.955406 -13.448875 -8.396812 -14.171531 -8.85775 C -14.898094 -9.318687 -15.5895 -9.764 -15.5895 -10.275719 C -15.5895 -10.787437 -14.898094 -11.23275 -14.171531 -11.693687 C -13.448875 -12.154625 -12.757469 -12.596031 -12.757469 -13.111656 C -12.757469 -13.623375 -13.448875 -14.064781 -14.171531 -14.525719 C -14.898094 -14.990562 -15.5895 -15.431969 -15.5895 -15.943687 C -15.5895 -16.459312 -14.898094 -16.900719 -14.171531 -17.361656 C -13.448875 -17.822594 -12.757469 -18.267906 -12.757469 -18.779625 C -12.757469 -19.486656 -14.171531 -19.842125 -14.171531 -20.553062 L -14.171531 -21.260094 " transform="matrix(1,0,0,-1,257.652,3.111)"/>
<g clip-path="url(#clip17)" clip-rule="nonzero">
<path style="fill:none;stroke-width:0.3985;stroke-linecap:butt;stroke-linejoin:miter;stroke:rgb(0%,0%,59.999084%);stroke-opacity:1;stroke-miterlimit:10;" d="M -14.171531 -21.260094 C -14.171531 -21.967125 -12.757469 -22.322594 -12.757469 -23.033531 C -12.757469 -23.54525 -13.448875 -23.986656 -14.171531 -24.447594 C -14.898094 -24.912437 -15.5895 -25.353844 -15.5895 -25.865562 C -15.5895 -26.381187 -14.898094 -26.822594 -14.171531 -27.283531 C -13.448875 -27.744469 -12.757469 -28.189781 -12.757469 -28.7015 C -12.757469 -29.213219 -13.448875 -29.654625 -14.171531 -30.119469 C -14.898094 -30.580406 -15.5895 -31.021812 -15.5895 -31.537437 C -15.5895 -32.049156 -14.898094 -32.490562 -14.171531 -32.9515 C -13.448875 -33.416344 -12.757469 -33.85775 -12.757469 -34.369469 C -12.757469 -34.885094 -13.448875 -35.3265 -14.171531 -35.787437 C -14.898094 -36.248375 -15.5895 -36.693687 -15.5895 -37.205406 C -15.5895 -37.717125 -14.898094 -38.158531 -14.171531 -38.623375 C -13.448875 -39.084312 -12.757469 -39.525719 -12.757469 -40.041344 C -12.757469 -40.748375 -14.171531 -41.103844 -14.171531 -41.810875 L -14.171531 -42.521812 " transform="matrix(1,0,0,-1,257.652,3.111)"/>
</g>
<path style="fill:none;stroke-width:0.3985;stroke-linecap:butt;stroke-linejoin:miter;stroke:rgb(0%,0%,59.999084%);stroke-opacity:1;stroke-miterlimit:10;" d="M 14.172219 0.001625 C 14.172219 -0.709312 15.590188 -1.064781 15.590188 -1.771812 C 15.590188 -2.283531 14.898781 -2.728844 14.172219 -3.189781 C 13.449563 -3.650719 12.75425 -4.092125 12.75425 -4.60775 C 12.75425 -5.119469 13.449563 -5.560875 14.172219 -6.021812 C 14.898781 -6.486656 15.590188 -6.928062 15.590188 -7.439781 C 15.590188 -7.955406 14.898781 -8.396812 14.172219 -8.85775 C 13.449563 -9.318687 12.75425 -9.764 12.75425 -10.275719 C 12.75425 -10.787437 13.449563 -11.23275 14.172219 -11.693687 C 14.898781 -12.154625 15.590188 -12.596031 15.590188 -13.111656 C 15.590188 -13.623375 14.898781 -14.064781 14.172219 -14.525719 C 13.449563 -14.990562 12.75425 -15.431969 12.75425 -15.943687 C 12.75425 -16.459312 13.449563 -16.900719 14.172219 -17.361656 C 14.898781 -17.822594 15.590188 -18.267906 15.590188 -18.779625 C 15.590188 -19.486656 14.172219 -19.842125 14.172219 -20.553062 L 14.172219 -21.260094 " transform="matrix(1,0,0,-1,257.652,3.111)"/>
<g clip-path="url(#clip18)" clip-rule="nonzero">
<path style="fill:none;stroke-width:0.3985;stroke-linecap:butt;stroke-linejoin:miter;stroke:rgb(0%,0%,59.999084%);stroke-opacity:1;stroke-miterlimit:10;" d="M 14.172219 -21.260094 C 14.172219 -21.967125 15.590188 -22.322594 15.590188 -23.033531 C 15.590188 -23.54525 14.898781 -23.986656 14.172219 -24.447594 C 13.449563 -24.912437 12.75425 -25.353844 12.75425 -25.865562 C 12.75425 -26.381187 13.449563 -26.822594 14.172219 -27.283531 C 14.898781 -27.744469 15.590188 -28.189781 15.590188 -28.7015 C 15.590188 -29.213219 14.898781 -29.654625 14.172219 -30.119469 C 13.449563 -30.580406 12.75425 -31.021812 12.75425 -31.537437 C 12.75425 -32.049156 13.449563 -32.490562 14.172219 -32.9515 C 14.898781 -33.416344 15.590188 -33.85775 15.590188 -34.369469 C 15.590188 -34.885094 14.898781 -35.3265 14.172219 -35.787437 C 13.449563 -36.248375 12.75425 -36.693687 12.75425 -37.205406 C 12.75425 -37.717125 13.449563 -38.158531 14.172219 -38.623375 C 14.898781 -39.084312 15.590188 -39.525719 15.590188 -40.041344 C 15.590188 -40.748375 14.172219 -41.103844 14.172219 -41.810875 L 14.172219 -42.521812 " transform="matrix(1,0,0,-1,257.652,3.111)"/>
</g>
<path style="fill:none;stroke-width:0.3985;stroke-linecap:butt;stroke-linejoin:miter;stroke:rgb(0%,0%,59.999084%);stroke-opacity:1;stroke-miterlimit:10;" d="M -14.171531 -21.260094 C -13.4645 -21.260094 -13.109031 -19.842125 -12.402 -19.842125 C -11.890281 -19.842125 -11.444969 -20.533531 -10.984031 -21.260094 C -10.523094 -21.986656 -10.081687 -22.678062 -9.566062 -22.678062 C -9.054344 -22.678062 -8.612937 -21.986656 -8.148094 -21.260094 C -7.687156 -20.533531 -7.24575 -19.842125 -6.734031 -19.842125 C -6.218406 -19.842125 -5.777 -20.533531 -5.316062 -21.260094 C -4.851219 -21.986656 -4.409812 -22.678062 -3.898094 -22.678062 C -3.386375 -22.678062 -2.941062 -21.986656 -2.480125 -21.260094 C -2.019187 -20.533531 -1.577781 -19.842125 -1.062156 -19.842125 C -0.550437 -19.842125 -0.109031 -20.533531 0.355813 -21.260094 C 0.81675 -21.986656 1.258156 -22.678062 1.769875 -22.678062 C 2.2855 -22.678062 2.726906 -21.986656 3.187844 -21.260094 C 3.652688 -20.533531 4.094094 -19.842125 4.605813 -19.842125 C 5.117531 -19.842125 5.562844 -20.533531 6.023781 -21.260094 C 6.484719 -21.986656 6.926125 -22.678062 7.44175 -22.678062 C 7.953469 -22.678062 8.394875 -21.986656 8.859719 -21.260094 C 9.320656 -20.533531 9.762063 -19.842125 10.273781 -19.842125 C 10.984719 -19.842125 11.340188 -21.260094 12.047219 -21.260094 L 14.172219 -21.260094 " transform="matrix(1,0,0,-1,257.652,3.111)"/>
<path style="fill-rule:nonzero;fill:rgb(0%,0%,0%);fill-opacity:1;stroke-width:0.3985;stroke-linecap:butt;stroke-linejoin:miter;stroke:rgb(0%,0%,0%);stroke-opacity:1;stroke-miterlimit:10;" d="M -12.757469 0.001625 C -12.757469 0.782875 -13.390281 1.415688 -14.171531 1.415688 C -14.956687 1.415688 -15.5895 0.782875 -15.5895 0.001625 C -15.5895 -0.783531 -14.956687 -1.416344 -14.171531 -1.416344 C -13.390281 -1.416344 -12.757469 -0.783531 -12.757469 0.001625 Z M -12.757469 0.001625 " transform="matrix(1,0,0,-1,257.652,3.111)"/>
<path style="fill-rule:nonzero;fill:rgb(0%,0%,0%);fill-opacity:1;stroke-width:0.3985;stroke-linecap:butt;stroke-linejoin:miter;stroke:rgb(0%,0%,0%);stroke-opacity:1;stroke-miterlimit:10;" d="M 15.590188 0.001625 C 15.590188 0.782875 14.957375 1.415688 14.172219 1.415688 C 13.390969 1.415688 12.75425 0.782875 12.75425 0.001625 C 12.75425 -0.783531 13.390969 -1.416344 14.172219 -1.416344 C 14.957375 -1.416344 15.590188 -0.783531 15.590188 0.001625 Z M 15.590188 0.001625 " transform="matrix(1,0,0,-1,257.652,3.111)"/>
<path style=" stroke:none;fill-rule:nonzero;fill:rgb(0%,0%,0%);fill-opacity:1;" d="M 244.894531 45.632812 C 244.894531 44.847656 244.261719 44.214844 243.480469 44.214844 C 242.695312 44.214844 242.0625 44.847656 242.0625 45.632812 C 242.0625 46.414062 242.695312 47.046875 243.480469 47.046875 C 244.261719 47.046875 244.894531 46.414062 244.894531 45.632812 Z M 244.894531 45.632812 "/>
<g clip-path="url(#clip19)" clip-rule="nonzero">
<path style="fill:none;stroke-width:0.3985;stroke-linecap:butt;stroke-linejoin:miter;stroke:rgb(0%,0%,0%);stroke-opacity:1;stroke-miterlimit:10;" d="M -12.757469 -42.521812 C -12.757469 -41.736656 -13.390281 -41.103844 -14.171531 -41.103844 C -14.956687 -41.103844 -15.5895 -41.736656 -15.5895 -42.521812 C -15.5895 -43.303062 -14.956687 -43.935875 -14.171531 -43.935875 C -13.390281 -43.935875 -12.757469 -43.303062 -12.757469 -42.521812 Z M -12.757469 -42.521812 " transform="matrix(1,0,0,-1,257.652,3.111)"/>
</g>
<path style=" stroke:none;fill-rule:nonzero;fill:rgb(0%,0%,0%);fill-opacity:1;" d="M 273.242188 45.632812 C 273.242188 44.847656 272.609375 44.214844 271.824219 44.214844 C 271.042969 44.214844 270.40625 44.847656 270.40625 45.632812 C 270.40625 46.414062 271.042969 47.046875 271.824219 47.046875 C 272.609375 47.046875 273.242188 46.414062 273.242188 45.632812 Z M 273.242188 45.632812 "/>
<g clip-path="url(#clip20)" clip-rule="nonzero">
<path style="fill:none;stroke-width:0.3985;stroke-linecap:butt;stroke-linejoin:miter;stroke:rgb(0%,0%,0%);stroke-opacity:1;stroke-miterlimit:10;" d="M 15.590188 -42.521812 C 15.590188 -41.736656 14.957375 -41.103844 14.172219 -41.103844 C 13.390969 -41.103844 12.75425 -41.736656 12.75425 -42.521812 C 12.75425 -43.303062 13.390969 -43.935875 14.172219 -43.935875 C 14.957375 -43.935875 15.590188 -43.303062 15.590188 -42.521812 Z M 15.590188 -42.521812 " transform="matrix(1,0,0,-1,257.652,3.111)"/>
</g>
<g style="fill:rgb(0%,0%,0%);fill-opacity:1;">
  <use xlink:href="#glyph0-2" x="277.487" y="26.862"/>
</g>
<g style="fill:rgb(0%,0%,0%);fill-opacity:1;">
  <use xlink:href="#glyph1-1" x="286.896" y="26.862"/>
</g>
<g style="fill:rgb(0%,0%,0%);fill-opacity:1;">
  <use xlink:href="#glyph1-1" x="291.327364" y="26.862"/>
</g>
<g style="fill:rgb(0%,0%,0%);fill-opacity:1;">
  <use xlink:href="#glyph1-1" x="295.748766" y="26.862"/>
</g>
</g>
</svg>
